^C:\SYSTEMC\WORKSPACE\CONVERTER\CONVERTER\RGB.CPP
C:\SYSTEMC\WORKSPACE\CONVERTER\CONVERTER\DEBUG\VC140.PDB
C:\SYSTEMC\WORKSPACE\CONVERTER\CONVERTER\DEBUG\VC140.IDB
^C:\SYSTEMC\WORKSPACE\CONVERTER\CONVERTER\IMAGE.CPP
C:\SYSTEMC\WORKSPACE\CONVERTER\CONVERTER\DEBUG\VC140.PDB
C:\SYSTEMC\WORKSPACE\CONVERTER\CONVERTER\DEBUG\VC140.IDB
^C:\SYSTEMC\WORKSPACE\CONVERTER\CONVERTER\IMAGE.CPP|C:\SYSTEMC\WORKSPACE\CONVERTER\CONVERTER\MAIN_IMAGE.CPP
C:\SYSTEMC\WORKSPACE\CONVERTER\CONVERTER\DEBUG\VC140.PDB
C:\SYSTEMC\WORKSPACE\CONVERTER\CONVERTER\DEBUG\VC140.IDB
C:\SYSTEMC\WORKSPACE\CONVERTER\CONVERTER\DEBUG\IMAGE.OBJ
C:\SYSTEMC\WORKSPACE\CONVERTER\CONVERTER\DEBUG\MAIN_IMAGE.OBJ
^C:\SYSTEMC\WORKSPACE\CONVERTER\CONVERTER\MAIN_IMAGE.CPP
C:\SYSTEMC\WORKSPACE\CONVERTER\CONVERTER\DEBUG\VC140.PDB
C:\SYSTEMC\WORKSPACE\CONVERTER\CONVERTER\DEBUG\VC140.IDB
C:\SYSTEMC\WORKSPACE\CONVERTER\CONVERTER\DEBUG\MAIN_IMAGE.OBJ
^C:\SYSTEMC\WORKSPACE\CONVERTER\CONVERTER\BUFFER.CPP|C:\SYSTEMC\WORKSPACE\CONVERTER\CONVERTER\IMAGE.CPP|C:\SYSTEMC\WORKSPACE\CONVERTER\CONVERTER\MAIN_IMAGE.CPP
C:\SYSTEMC\WORKSPACE\CONVERTER\CONVERTER\DEBUG\VC140.PDB
C:\SYSTEMC\WORKSPACE\CONVERTER\CONVERTER\DEBUG\VC140.IDB
C:\SYSTEMC\WORKSPACE\CONVERTER\CONVERTER\DEBUG\BUFFER.OBJ
C:\SYSTEMC\WORKSPACE\CONVERTER\CONVERTER\DEBUG\IMAGE.OBJ
C:\SYSTEMC\WORKSPACE\CONVERTER\CONVERTER\DEBUG\MAIN_IMAGE.OBJ
^C:\SYSTEMC\WORKSPACE\CONVERTER\CONVERTER\BUFFER.CPP
C:\SYSTEMC\WORKSPACE\CONVERTER\CONVERTER\DEBUG\VC140.PDB
C:\SYSTEMC\WORKSPACE\CONVERTER\CONVERTER\DEBUG\VC140.IDB
C:\SYSTEMC\WORKSPACE\CONVERTER\CONVERTER\DEBUG\BUFFER.OBJ
^C:\SYSTEMC\WORKSPACE\CONVERTER\CONVERTER\LINE2PIXEL.CPP|C:\SYSTEMC\WORKSPACE\CONVERTER\CONVERTER\MAIN_IMAGE.CPP|C:\SYSTEMC\WORKSPACE\CONVERTER\CONVERTER\RGB2YCOCG.CPP|C:\SYSTEMC\WORKSPACE\CONVERTER\CONVERTER\YCOCG2RGB.CPP
C:\SYSTEMC\WORKSPACE\CONVERTER\CONVERTER\DEBUG\VC140.PDB
C:\SYSTEMC\WORKSPACE\CONVERTER\CONVERTER\DEBUG\VC140.IDB
C:\SYSTEMC\WORKSPACE\CONVERTER\CONVERTER\DEBUG\LINE2PIXEL.OBJ
C:\SYSTEMC\WORKSPACE\CONVERTER\CONVERTER\DEBUG\RGB2YCOCG.OBJ
C:\SYSTEMC\WORKSPACE\CONVERTER\CONVERTER\DEBUG\YCOCG2RGB.OBJ
C:\SYSTEMC\WORKSPACE\CONVERTER\CONVERTER\DEBUG\MAIN_IMAGE.OBJ
^C:\SYSTEMC\WORKSPACE\CONVERTER\CONVERTER\LINE2PIXEL.CPP
C:\SYSTEMC\WORKSPACE\CONVERTER\CONVERTER\DEBUG\VC140.PDB
C:\SYSTEMC\WORKSPACE\CONVERTER\CONVERTER\DEBUG\VC140.IDB
C:\SYSTEMC\WORKSPACE\CONVERTER\CONVERTER\DEBUG\LINE2PIXEL.OBJ
^C:\SYSTEMC\WORKSPACE\CONVERTER\CONVERTER\RGB2YCOCG.CPP
C:\SYSTEMC\WORKSPACE\CONVERTER\CONVERTER\DEBUG\VC140.PDB
^C:\SYSTEMC\WORKSPACE\CONVERTER\CONVERTER\YCOCG2RGB.CPP
C:\SYSTEMC\WORKSPACE\CONVERTER\CONVERTER\DEBUG\VC140.PDB
C:\SYSTEMC\WORKSPACE\CONVERTER\CONVERTER\DEBUG\VC140.IDB
C:\SYSTEMC\WORKSPACE\CONVERTER\CONVERTER\DEBUG\YCOCG2RGB.OBJ
^C:\SYSTEMC\WORKSPACE\CONVERTER\CONVERTER\BUFFER.CPP|C:\SYSTEMC\WORKSPACE\CONVERTER\CONVERTER\IMAGE.CPP|C:\SYSTEMC\WORKSPACE\CONVERTER\CONVERTER\LINE2PIXEL.CPP|C:\SYSTEMC\WORKSPACE\CONVERTER\CONVERTER\MAIN_IMAGE.CPP
C:\SYSTEMC\WORKSPACE\CONVERTER\CONVERTER\DEBUG\VC140.PDB
C:\SYSTEMC\WORKSPACE\CONVERTER\CONVERTER\DEBUG\VC140.IDB
C:\SYSTEMC\WORKSPACE\CONVERTER\CONVERTER\DEBUG\BUFFER.OBJ
C:\SYSTEMC\WORKSPACE\CONVERTER\CONVERTER\DEBUG\IMAGE.OBJ
C:\SYSTEMC\WORKSPACE\CONVERTER\CONVERTER\DEBUG\LINE2PIXEL.OBJ
C:\SYSTEMC\WORKSPACE\CONVERTER\CONVERTER\DEBUG\MAIN_IMAGE.OBJ
^C:\SYSTEMC\WORKSPACE\CONVERTER\CONVERTER\MAIN_IMAGE.CPP|C:\SYSTEMC\WORKSPACE\CONVERTER\CONVERTER\YCOCG2RGB.CPP
C:\SYSTEMC\WORKSPACE\CONVERTER\CONVERTER\DEBUG\VC140.PDB
C:\SYSTEMC\WORKSPACE\CONVERTER\CONVERTER\DEBUG\VC140.IDB
C:\SYSTEMC\WORKSPACE\CONVERTER\CONVERTER\DEBUG\YCOCG2RGB.OBJ
C:\SYSTEMC\WORKSPACE\CONVERTER\CONVERTER\DEBUG\MAIN_IMAGE.OBJ
^C:\SYSTEMC\WORKSPACE\CONVERTER\CONVERTER\IMAGE.CPP|C:\SYSTEMC\WORKSPACE\CONVERTER\CONVERTER\YCOCG2RGB.CPP
C:\SYSTEMC\WORKSPACE\CONVERTER\CONVERTER\DEBUG\VC140.PDB
C:\SYSTEMC\WORKSPACE\CONVERTER\CONVERTER\DEBUG\VC140.IDB
C:\SYSTEMC\WORKSPACE\CONVERTER\CONVERTER\DEBUG\IMAGE.OBJ
C:\SYSTEMC\WORKSPACE\CONVERTER\CONVERTER\DEBUG\YCOCG2RGB.OBJ
^C:\SYSTEMC\WORKSPACE\CONVERTER\CONVERTER\LINE2PIXEL.CPP|C:\SYSTEMC\WORKSPACE\CONVERTER\CONVERTER\MAIN_IMAGE.CPP
C:\SYSTEMC\WORKSPACE\CONVERTER\CONVERTER\DEBUG\VC140.PDB
C:\SYSTEMC\WORKSPACE\CONVERTER\CONVERTER\DEBUG\VC140.IDB
C:\SYSTEMC\WORKSPACE\CONVERTER\CONVERTER\DEBUG\LINE2PIXEL.OBJ
C:\SYSTEMC\WORKSPACE\CONVERTER\CONVERTER\DEBUG\MAIN_IMAGE.OBJ
^C:\SYSTEMC\WORKSPACE\CONVERTER\CONVERTER\BUFFER.CPP|C:\SYSTEMC\WORKSPACE\CONVERTER\CONVERTER\MAIN_IMAGE.CPP
C:\SYSTEMC\WORKSPACE\CONVERTER\CONVERTER\DEBUG\VC140.PDB
C:\SYSTEMC\WORKSPACE\CONVERTER\CONVERTER\DEBUG\VC140.IDB
C:\SYSTEMC\WORKSPACE\CONVERTER\CONVERTER\DEBUG\MAIN_IMAGE.OBJ
^C:\SYSTEMC\WORKSPACE\CONVERTER\CONVERTER\LINE2PIXEL.CPP|C:\SYSTEMC\WORKSPACE\CONVERTER\CONVERTER\MAIN_IMAGE.CPP|C:\SYSTEMC\WORKSPACE\CONVERTER\CONVERTER\YCOCG2RGB.CPP
C:\SYSTEMC\WORKSPACE\CONVERTER\CONVERTER\DEBUG\VC140.PDB
C:\SYSTEMC\WORKSPACE\CONVERTER\CONVERTER\DEBUG\VC140.IDB
C:\SYSTEMC\WORKSPACE\CONVERTER\CONVERTER\DEBUG\LINE2PIXEL.OBJ
C:\SYSTEMC\WORKSPACE\CONVERTER\CONVERTER\DEBUG\MAIN_IMAGE.OBJ
C:\SYSTEMC\WORKSPACE\CONVERTER\CONVERTER\DEBUG\YCOCG2RGB.OBJ
^C:\SYSTEMC\WORKSPACE\CONVERTER\CONVERTER\BUFFER.CPP|C:\SYSTEMC\WORKSPACE\CONVERTER\CONVERTER\IMAGE.CPP|C:\SYSTEMC\WORKSPACE\CONVERTER\CONVERTER\LINE2PIXEL.CPP|C:\SYSTEMC\WORKSPACE\CONVERTER\CONVERTER\MAIN_IMAGE.CPP|C:\SYSTEMC\WORKSPACE\CONVERTER\CONVERTER\RGB2YCOCG.CPP
C:\SYSTEMC\WORKSPACE\CONVERTER\CONVERTER\DEBUG\VC140.PDB
C:\SYSTEMC\WORKSPACE\CONVERTER\CONVERTER\DEBUG\VC140.IDB
C:\SYSTEMC\WORKSPACE\CONVERTER\CONVERTER\DEBUG\BUFFER.OBJ
C:\SYSTEMC\WORKSPACE\CONVERTER\CONVERTER\DEBUG\IMAGE.OBJ
C:\SYSTEMC\WORKSPACE\CONVERTER\CONVERTER\DEBUG\LINE2PIXEL.OBJ
C:\SYSTEMC\WORKSPACE\CONVERTER\CONVERTER\DEBUG\MAIN_IMAGE.OBJ
C:\SYSTEMC\WORKSPACE\CONVERTER\CONVERTER\DEBUG\RGB2YCOCG.OBJ
^C:\SYSTEMC\WORKSPACE\CONVERTER\CONVERTER\MAIN_IMAGE.CPP|C:\SYSTEMC\WORKSPACE\CONVERTER\CONVERTER\RGB2YCOCG.CPP
C:\SYSTEMC\WORKSPACE\CONVERTER\CONVERTER\DEBUG\VC140.PDB
C:\SYSTEMC\WORKSPACE\CONVERTER\CONVERTER\DEBUG\VC140.IDB
C:\SYSTEMC\WORKSPACE\CONVERTER\CONVERTER\DEBUG\RGB2YCOCG.OBJ
C:\SYSTEMC\WORKSPACE\CONVERTER\CONVERTER\DEBUG\MAIN_IMAGE.OBJ
