﻿  sc_clock.cpp
  Unknown compiler version - please run the configure tests and report the results
  sc_event_finder.cpp
  Unknown compiler version - please run the configure tests and report the results
  sc_event_queue.cpp
  Unknown compiler version - please run the configure tests and report the results
  sc_export.cpp
  Unknown compiler version - please run the configure tests and report the results
  sc_interface.cpp
  Unknown compiler version - please run the configure tests and report the results
  sc_mutex.cpp
  Unknown compiler version - please run the configure tests and report the results
  sc_port.cpp
  Unknown compiler version - please run the configure tests and report the results
  sc_prim_channel.cpp
  Unknown compiler version - please run the configure tests and report the results
  sc_semaphore.cpp
  Unknown compiler version - please run the configure tests and report the results
  sc_signal.cpp
  Unknown compiler version - please run the configure tests and report the results
  sc_signal_ports.cpp
  Unknown compiler version - please run the configure tests and report the results
  sc_signal_resolved.cpp
  Unknown compiler version - please run the configure tests and report the results
  sc_signal_resolved_ports.cpp
  Unknown compiler version - please run the configure tests and report the results
  sc_bit.cpp
  Unknown compiler version - please run the configure tests and report the results
  sc_bv_base.cpp
  Unknown compiler version - please run the configure tests and report the results
  sc_logic.cpp
  Unknown compiler version - please run the configure tests and report the results
  sc_lv_base.cpp
  Unknown compiler version - please run the configure tests and report the results
  scfx_mant.cpp
  Unknown compiler version - please run the configure tests and report the results
  scfx_pow10.cpp
  Unknown compiler version - please run the configure tests and report the results
  scfx_rep.cpp
  Unknown compiler version - please run the configure tests and report the results
  코드를 생성하고 있습니다...
  컴파일하고 있습니다...
  scfx_utils.cpp
  Unknown compiler version - please run the configure tests and report the results
  sc_fxcast_switch.cpp
  Unknown compiler version - please run the configure tests and report the results
  sc_fxdefs.cpp
  Unknown compiler version - please run the configure tests and report the results
  sc_fxnum.cpp
  Unknown compiler version - please run the configure tests and report the results
  sc_fxnum_observer.cpp
  Unknown compiler version - please run the configure tests and report the results
  sc_fxtype_params.cpp
  Unknown compiler version - please run the configure tests and report the results
  sc_fxval.cpp
  Unknown compiler version - please run the configure tests and report the results
  sc_fxval_observer.cpp
  Unknown compiler version - please run the configure tests and report the results
  sc_int32_mask.cpp
  sc_int64_io.cpp
  Unknown compiler version - please run the configure tests and report the results
  sc_int64_mask.cpp
  Unknown compiler version - please run the configure tests and report the results
..\..\src\sysc\datatypes\int\sc_int64_mask.cpp(4494): warning C4838: '__int64'에서 'const sc_dt::uint_type'(으)로의 변환에는 축소 변환이 필요합니다.
  sc_int_base.cpp
  Unknown compiler version - please run the configure tests and report the results
  sc_length_param.cpp
  Unknown compiler version - please run the configure tests and report the results
  sc_nbdefs.cpp
  Unknown compiler version - please run the configure tests and report the results
  sc_nbexterns.cpp
  Unknown compiler version - please run the configure tests and report the results
  sc_nbutils.cpp
  Unknown compiler version - please run the configure tests and report the results
  sc_signed.cpp
  Unknown compiler version - please run the configure tests and report the results
  sc_uint_base.cpp
  Unknown compiler version - please run the configure tests and report the results
  sc_unsigned.cpp
  Unknown compiler version - please run the configure tests and report the results
  sc_concatref.cpp
  Unknown compiler version - please run the configure tests and report the results
  코드를 생성하고 있습니다...
  컴파일하고 있습니다...
  sc_value_base.cpp
  Unknown compiler version - please run the configure tests and report the results
  sc_attribute.cpp
  sc_cor_fiber.cpp
  Unknown compiler version - please run the configure tests and report the results
  sc_cthread_process.cpp
  Unknown compiler version - please run the configure tests and report the results
  sc_event.cpp
  Unknown compiler version - please run the configure tests and report the results
  sc_except.cpp
  Unknown compiler version - please run the configure tests and report the results
  sc_join.cpp
  Unknown compiler version - please run the configure tests and report the results
  sc_main.cpp
  Unknown compiler version - please run the configure tests and report the results
  sc_main_main.cpp
  Unknown compiler version - please run the configure tests and report the results
  sc_method_process.cpp
  Unknown compiler version - please run the configure tests and report the results
  sc_module.cpp
  Unknown compiler version - please run the configure tests and report the results
  sc_module_name.cpp
  Unknown compiler version - please run the configure tests and report the results
  sc_module_registry.cpp
  Unknown compiler version - please run the configure tests and report the results
  sc_name_gen.cpp
  sc_object.cpp
  Unknown compiler version - please run the configure tests and report the results
  sc_object_manager.cpp
  Unknown compiler version - please run the configure tests and report the results
  sc_phase_callback_registry.cpp
  Unknown compiler version - please run the configure tests and report the results
  sc_process.cpp
  Unknown compiler version - please run the configure tests and report the results
  sc_reset.cpp
  Unknown compiler version - please run the configure tests and report the results
  sc_sensitive.cpp
  Unknown compiler version - please run the configure tests and report the results
  코드를 생성하고 있습니다...
  컴파일하고 있습니다...
  sc_simcontext.cpp
  Unknown compiler version - please run the configure tests and report the results
C:\systemc-2.3.1\src\sysc/packages/boost/ref.hpp : warning C4819: 현재 코드 페이지(949)에서 표시할 수 없는 문자가 파일에 들어 있습니다. 데이터가 손실되지 않게 하려면 해당 파일을 유니코드 형식으로 저장하십시오.
  sc_spawn_options.cpp
  Unknown compiler version - please run the configure tests and report the results
  sc_thread_process.cpp
  Unknown compiler version - please run the configure tests and report the results
  sc_time.cpp
  Unknown compiler version - please run the configure tests and report the results
  sc_ver.cpp
  sc_wait.cpp
  Unknown compiler version - please run the configure tests and report the results
  sc_wait_cthread.cpp
  Unknown compiler version - please run the configure tests and report the results
  sc_trace.cpp
  Unknown compiler version - please run the configure tests and report the results
  sc_trace_file_base.cpp
  Unknown compiler version - please run the configure tests and report the results
  sc_vcd_trace.cpp
  Unknown compiler version - please run the configure tests and report the results
  sc_wif_trace.cpp
  Unknown compiler version - please run the configure tests and report the results
  sc_hash.cpp
  Unknown compiler version - please run the configure tests and report the results
  sc_list.cpp
  Unknown compiler version - please run the configure tests and report the results
  sc_mempool.cpp
  sc_pq.cpp
  sc_report.cpp
  Unknown compiler version - please run the configure tests and report the results
  sc_report_handler.cpp
  Unknown compiler version - please run the configure tests and report the results
  sc_stop_here.cpp
  sc_string.cpp
  sc_utils_ids.cpp
  코드를 생성하고 있습니다...
  컴파일하고 있습니다...
  sc_vector.cpp
  Unknown compiler version - please run the configure tests and report the results
C:\systemc-2.3.1\src\sysc/packages/boost/utility/enable_if.hpp : warning C4819: 현재 코드 페이지(949)에서 표시할 수 없는 문자가 파일에 들어 있습니다. 데이터가 손실되지 않게 하려면 해당 파일을 유니코드 형식으로 저장하십시오.
  코드를 생성하고 있습니다...
  SystemC.vcxproj -> C:\systemc-2.3.1\msvc80\SystemC\Release\SystemC.lib
